[gd_scene load_steps=4 format=2]

[ext_resource path="res://levels/level_0/game.tscn" type="PackedScene" id=1]
[ext_resource path="res://scripts/ui/exit_game_button.gd" type="Script" id=2]
[ext_resource path="res://scripts/ui/switch_scene_button.gd" type="Script" id=3]

[node name="lose_screen" type="Control"]
anchor_right = 1.0
anchor_bottom = 1.0

[node name="Panel" type="Panel" parent="."]
margin_right = 1024.0
margin_bottom = 600.0

[node name="Label" type="Label" parent="Panel"]
margin_right = 512.0
margin_bottom = 104.0
rect_scale = Vector2( 2, 2 )
text = "You won  !"
align = 1
valign = 1

[node name="Button" type="Button" parent="Panel"]
margin_left = 456.0
margin_top = 320.0
margin_right = 576.0
margin_bottom = 368.0
text = "Exit"
script = ExtResource( 2 )

[node name="replay" type="Button" parent="Panel"]
margin_left = 456.0
margin_top = 400.0
margin_right = 576.0
margin_bottom = 448.0
text = "Replay"
script = ExtResource( 3 )
TARGET_SCENE = ExtResource( 1 )
